Data Wrangling
…
t : Year

i : Exporter (ISO 3-digit country code)

j : Importer (ISO 3-digit country code)

k : Product category (HS92 2/4/6-digit code)

v : Value of the trade flow (in thousands current USD)

q : Quantity (in metric tons)

Note: The full dataset of HS92 is from 1995-2020 at 6-digit code. To keep files size managable, I use only data from 2016-2020 at 2 digit.

#> # A tibble: 895,929 × 6
#>        t     i     j k          v       q
#>    <dbl> <dbl> <dbl> <chr>  <dbl>   <dbl>
#>  1  2019     4    24 48     1.60    1    
#>  2  2019     4    24 84     1.11    0.021
#>  3  2019     4    28 62     0.483   0.011
#>  4  2019     4    31 07     6.07   22.0  
#>  5  2019     4    31 08     9.41   38.2  
#>  6  2019     4    31 09     2.66    0.003
#>  7  2019     4    31 20     0.082   0.096
#>  8  2019     4    31 22     0.559   1.06 
#>  9  2019     4    31 25    27.4   111.   
#> 10  2019     4    31 39     1.77    0.285
#> # … with 895,919 more rows
…
Country data contains basic data i.e. population and GDP from 2000-2019. It is derived from CEPII’s Gravity dataset which is downloaded from http://www.cepii.fr/CEPII/en/bdd_modele/bdd_modele_item.asp?id=8. Please see the documentation.

Data Dictionary:

year : Year

iso3 : Country code (ISO 3-digit country code)

pop : Population (in thousands)

gdp : GDP (current thousands US$)

gdpcap : GDP per capita (current thousands US$)

#> # A tibble: 4,960 × 5
#>     year iso3    pop      gdp gdpcap
#>    <dbl> <chr> <dbl>    <dbl>  <dbl>
#>  1  2000 ABW    90.9 1873453.   20.6
#>  2  2001 ABW    92.9 1920263.   20.7
#>  3  2002 ABW    95.0 1941095.   20.4
#>  4  2003 ABW    97.0 2021302.   20.8
#>  5  2004 ABW    98.7 2228279.   22.6
#>  6  2005 ABW   100.  2331006.   23.3
#>  7  2006 ABW   101.  2421475.   24.0
#>  8  2007 ABW   101.  2623726.   25.9
#>  9  2008 ABW   101.  2791961.   27.5
#> 10  2009 ABW   101.  2498933.   24.6
#> # … with 4,950 more rows
…
Country codes is a table that provides additional details about countries including code, name and region. Since there are many code standards/system, we use ISO 3166 which has three code i.e. numeric, two-alphabetic and three-alphabetic. Codes are very helpful when linking tables because tables could use different coding system.

Data Dictionary:

iso3n : ISO 3-digit numric country code

country_name_abbreviation : country name short

country_name_full : country name full

iso2c : ISO 2-digit alphabetic country code

iso3c : ISO 3-digit alphabetic country code

#> # A tibble: 238 × 5
#>    iso3n country_name        iso2c iso3c region       
#>    <dbl> <chr>               <chr> <chr> <chr>        
#>  1     4 Afghanistan         AF    AFG   Asia         
#>  2     8 Albania             AL    ALB   Europe       
#>  3    12 Algeria             DZ    DZA   Africa       
#>  4    16 American Samoa      AS    ASM   Other        
#>  5    20 Andorra             AD    AND   Europe       
#>  6    24 Angola              AO    AGO   Africa       
#>  7    28 Antigua and Barbuda AG    ATG   North America
#>  8    31 Azerbaijan          AZ    AZE   Asia         
#>  9    32 Argentina           AR    ARG   South America
#> 10    36 Australia           AU    AUS   Oceania      
#> # … with 228 more rows

Product Codes

Product codes is a table that provides additional details about products using the Harmonized System (HS). The Harmonized System is an international nomenclature for the classification of products for customs purposes. At the international level, HS classifying goods is a six-digit code system where each country can have their own codes called tariff line. HS code has been update regulary i.e. HS92, HS96, HS02, HS07, HS12, HS17 and HS22. We use HS92 and also add product name and its sector as the one used by The Atlas of Economic Complexity.

Data Dictionary:

hs_product_2digit_code: HS92 product code at 2 digit code

hs_product_2digit_name: HS92 product description at 2 digit code

sector: sectors as classified by The Atlas of Economic Complexity

#> # A tibble: 102 × 4
#>    product_id hs_product_2digit_code hs_product_2digit_name sector     
#>         <dbl> <chr>                  <chr>                  <chr>      
#>  1        100 01                     Live animals           Agriculture
#>  2        101 02                     Meat                   Agriculture
#>  3        102 03                     Fish                   Agriculture
#>  4        103 04                     Diary products         Agriculture
#>  5        104 05                     Animal products        Agriculture
#>  6        105 06                     Plants                 Agriculture
#>  7        106 07                     Vegetables             Agriculture
#>  8        107 08                     Fruits and nuts        Agriculture
#>  9        108 09                     Coffee, tea and spices Agriculture
#> 10        109 10                     Cereals                Agriculture
#> # … with 92 more rows
…
here::here will set working directory to the directory that a file .here is located.

file .here is an empty file for placeholder. We can create it using here::set_here()

If we use Rstudio and Rproject which we do. Rproject will always set project folder as working directory.

csv

CSV is a text file that each columns are seperated by commas stored in .csv file extension. Aside from csv, there are similar text file that store spreadsheet data but used different seperator or fixed width to determine column by position. There is a csv file named country_codes.csv in folder data.

We use function read_csv from readr package which is loaded when we load tidyverse.

country_codes <- read_csv(here("data/country_codes.csv"), show_col_types = FALSE)
country_codes
#> # A tibble: 238 × 5
#>    iso3n country_name        iso2c iso3c region       
#>    <dbl> <chr>               <chr> <chr> <chr>        
#>  1     4 Afghanistan         AF    AFG   Asia         
#>  2     8 Albania             AL    ALB   Europe       
#>  3    12 Algeria             DZ    DZA   Africa       
#>  4    16 American Samoa      AS    ASM   Other        
#>  5    20 Andorra             AD    AND   Europe       
#>  6    24 Angola              AO    AGO   Africa       
#>  7    28 Antigua and Barbuda AG    ATG   North America
#>  8    31 Azerbaijan          AZ    AZE   Asia         
#>  9    32 Argentina           AR    ARG   South America
#> 10    36 Australia           AU    AUS   Oceania      
#> # … with 228 more rows
…
product_codes_hs92_4digit

product_codes_hs92_6digit

This tutorial will use only country_codes and product_codes_hs92_2digit.

read_excel check help(read_excel) for full explanation. Unlike csv file, we need to specify sheet either index or name. If not specified, the first sheet will be loaded by default.

# sheet name
country_codes <- read_excel(here("data/baci_meta.xlsx"), "country_codes")

# sheet number
product_codes <- read_excel(here("data/baci_meta.xlsx"), 2)
product_codes
#> # A tibble: 102 × 4
#>    product_id hs_product_2digit_code hs_product_2digit_name sector     
#>         <dbl> <chr>                  <chr>                  <chr>      
#>  1        100 01                     Live animals           Agriculture
#>  2        101 02                     Meat                   Agriculture
#>  3        102 03                     Fish                   Agriculture
#>  4        103 04                     Diary products         Agriculture
#>  5        104 05                     Animal products        Agriculture
#>  6        105 06                     Plants                 Agriculture
#>  7        106 07                     Vegetables             Agriculture
#>  8        107 08                     Fruits and nuts        Agriculture
#>  9        108 09                     Coffee, tea and spices Agriculture
#> 10        109 10                     Cereals                Agriculture
#> # … with 92 more rows

# country data using default: sheet = 1
country_data <- read_excel(here("data/country_data.xlsx"))
country_data
#> # A tibble: 4,960 × 5
#>     year iso3    pop      gdp gdpcap
#>    <dbl> <chr> <dbl>    <dbl>  <dbl>
#>  1  2000 ABW    90.9 1873453.   20.6
#>  2  2001 ABW    92.9 1920263.   20.7
#>  3  2002 ABW    95.0 1941095.   20.4
#>  4  2003 ABW    97.0 2021302.   20.8
#>  5  2004 ABW    98.7 2228279.   22.6
#>  6  2005 ABW   100.  2331006.   23.3
#>  7  2006 ABW   101.  2421475.   24.0
#>  8  2007 ABW   101.  2623726.   25.9
#>  9  2008 ABW   101.  2791961.   27.5
#> 10  2009 ABW   101.  2498933.   24.6
#> # … with 4,950 more rows

rds

rds is a file format that stores R object including data.frame and others.

readRDS for import rds into R session.

saveRDS for export/save an object into a rds file.

Note file rds will keep class and attribute of the object. This means that when we save a data.frame into rds, data types also be saved and can be restored using readRDS.

baci_2019 <- readRDS(here("data/baci_hs92_2019_2digit.rds"))
baci_2019
#> # A tibble: 895,929 × 6
#>        t     i     j k          v       q
#>    <dbl> <dbl> <dbl> <chr>  <dbl>   <dbl>
#>  1  2019     4    24 48     1.60    1    
#>  2  2019     4    24 84     1.11    0.021
#>  3  2019     4    28 62     0.483   0.011
#>  4  2019     4    31 07     6.07   22.0  
#>  5  2019     4    31 08     9.41   38.2  
#>  6  2019     4    31 09     2.66    0.003
#>  7  2019     4    31 20     0.082   0.096
#>  8  2019     4    31 22     0.559   1.06 
#>  9  2019     4    31 25    27.4   111.   
#> 10  2019     4    31 39     1.77    0.285
#> # … with 895,919 more rows
…
We use select from dplyr package.

Syntax:

df |>
  select(
    column_x, # select
    new_column_y = column_y, ... # select with rename
  )

Example: We select year, product, orgin country and trade value from baci_2020.

baci_2019 |> select(t, i, k, value = v)
#> # A tibble: 895,929 × 4
#>        t     i k      value
#>    <dbl> <dbl> <chr>  <dbl>
#>  1  2019     4 48     1.60 
#>  2  2019     4 84     1.11 
#>  3  2019     4 62     0.483
#>  4  2019     4 07     6.07 
#>  5  2019     4 08     9.41 
#>  6  2019     4 09     2.66 
#>  7  2019     4 20     0.082
#>  8  2019     4 22     0.559
#>  9  2019     4 25    27.4  
#> 10  2019     4 39     1.77 
#> # … with 895,919 more rows
…
We often interest in a subset of the data. There are many ways to filter data i.e. by index of rows. But one common way is to filter by conditions.

We use filter from dplyr package.

Syntax:

df |>
  filter(
    logical_expression(column_x) #i.e. column_x > 10
  )

Example: Get cereal (k == "10") export flow of Thailand (i == 764).

baci_2019 |> filter(i == 764 & k == "10")
#> # A tibble: 174 × 6
#>        t     i     j k              v         q
#>    <dbl> <dbl> <dbl> <chr>      <dbl>     <dbl>
#>  1  2019   764     8 10        35.6       42.9 
#>  2  2019   764    12 10     16050.     24223.  
#>  3  2019   764    16 10        46.4       47.6 
#>  4  2019   764    24 10    194831.    282029.  
#>  5  2019   764    28 10         0.422      1.99
#>  6  2019   764    31 10       939.      1909.  
#>  7  2019   764    32 10        51.6       60.8 
#>  8  2019   764    36 10     68991.     80063.  
#>  9  2019   764    40 10       779.      1018.  
#> 10  2019   764    44 10       112.       135.  
#> # … with 164 more rows
…
We use mutate from dplyr package. It can use to make multiple variables in single function call.

Syntax:

df |>
  mutate(
    new_x = expression,
    ...
  )

Example: Compute unit price by dividing value by quantity

baci_2019 |> mutate(unitprice = v / q)
#> # A tibble: 895,929 × 7
#>        t     i     j k          v       q unitprice
#>    <dbl> <dbl> <dbl> <chr>  <dbl>   <dbl>     <dbl>
#>  1  2019     4    24 48     1.60    1         1.60 
#>  2  2019     4    24 84     1.11    0.021    53.0  
#>  3  2019     4    28 62     0.483   0.011    43.9  
#>  4  2019     4    31 07     6.07   22.0       0.276
#>  5  2019     4    31 08     9.41   38.2       0.246
#>  6  2019     4    31 09     2.66    0.003   886.   
#>  7  2019     4    31 20     0.082   0.096     0.854
#>  8  2019     4    31 22     0.559   1.06      0.530
#>  9  2019     4    31 25    27.4   111.        0.247
#> 10  2019     4    31 39     1.77    0.285     6.21 
#> # … with 895,919 more rows
…
Arranging rows by variables

Often, we have to sort or rearrange rows by values of particular columns to help us better understanding of data. We can sort from lower to larger (ascending) or the opposite (descending). Also multiple columns can be sorted.

We use arrange from dplyr package. Default mode of sorting is ascending, if we want to sort descending, use desc(variable) syntax.

Syntax:

df |>
  arrange(column1, desc(column2),)

Example: Sort baci_2019 by country code ascending and export value descending.

baci_2019 |> arrange(i, desc(v))
#> # A tibble: 895,929 × 6
#>        t     i     j k           v         q
#>    <dbl> <dbl> <dbl> <chr>   <dbl>     <dbl>
#>  1  2019     4   784 71    976462.      22.5
#>  2  2019     4   699 08    273212.   54075. 
#>  3  2019     4   699 13    242662.    3338. 
#>  4  2019     4   586 08    172720.  253819. 
#>  5  2019     4   586 07    152581.  483541. 
#>  6  2019     4   586 27     80579. 1257448. 
#>  7  2019     4   586 52     80547.   66152. 
#>  8  2019     4   586 25     65047.  840893. 
#>  9  2019     4   699 09     40024.    3900. 
#> 10  2019     4   699 07     32648.   55953. 
#> # … with 895,919 more rows
…
Example: Find total export value by exporters and products.

baci_2019 |>
  group_by(i, k) |>
  summarize(
    v = sum(v)
  ) |> ungroup()
#> `summarise()` has grouped output by 'i'. You can override using the `.groups`
#> argument.
#> # A tibble: 19,287 × 3
#>        i k             v
#>    <dbl> <chr>     <dbl>
#>  1     4 01       622.  
#>  2     4 02        94.6 
#>  3     4 03         9.18
#>  4     4 04       105.  
#>  5     4 05      6860.  
#>  6     4 06       994.  
#>  7     4 07    187129.  
#>  8     4 08    555855.  
#>  9     4 09     60194.  
#> 10     4 10      3586.  
#> # … with 19,277 more rows
…
Example: Make a report of each country of population by years where we want each year to be a column. We can achieve this by pivot country_data to wide format.

country_data |>
  pivot_wider(
    id_cols = "iso3",
    names_from = "year",
    values_from = "pop"
  )
#> # A tibble: 248 × 21
#>    iso3   `2000`  `2001` `2002` `2003` `2004` `2005` `2006` `2007` `2008` `2009`
#>    <chr>   <dbl>   <dbl>  <dbl>  <dbl>  <dbl>  <dbl>  <dbl>  <dbl>  <dbl>  <dbl>
#>  1 ABW      90.9    92.9 9.50e1 9.70e1 9.87e1 1.00e2 1.01e2 1.01e2 1.01e2 1.01e2
#>  2 AFG   20595.  21348.  2.22e4 2.31e4 2.40e4 2.49e4 2.56e4 2.63e4 2.70e4 2.77e4
#>  3 AGO   13925.  14385.  1.49e4 1.54e4 1.60e4 1.65e4 1.71e4 1.77e4 1.83e4 1.89e4
#>  4 AIA      11.4    11.8 1.21e1 1.24e1 1.28e1 1.31e1 1.34e1 1.38e1 1.41e1 1.4 e1
#>  5 ALB    3089.   3064.  3.05e3 3.03e3 3.01e3 2.99e3 2.97e3 2.94e3 2.91e3 2.88e3
#>  6 AND      65.4    68   7.16e1 7.56e1 7.91e1 8.12e1 8.19e1 8.13e1 8.00e1 7.87e1
#>  7 ANT     301.    305.  3.09e2 3.13e2 3.17e2 3.20e2 3.23e2 3.25e2 3.27e2 3.28e2
#>  8 ARE    3026.   3132.  3.22e3 3.37e3 3.66e3 4.15e3 4.88e3 5.80e3 6.80e3 7.72e3
#>  9 ARG   36903.  37273.  3.76e4 3.80e4 3.83e4 3.86e4 3.90e4 3.93e4 3.97e4 4.00e4
#> 10 ARM    3076.   3060.  3.05e3 3.04e3 3.03e3 3.01e3 3.00e3 2.99e3 2.98e3 2.97e3
#> # … with 238 more rows, and 10 more variables: `2010` <dbl>, `2011` <dbl>,
#> #   `2012` <dbl>, `2013` <dbl>, `2014` <dbl>, `2015` <dbl>, `2016` <dbl>,
#> #   `2017` <dbl>, `2018` <dbl>, `2019` <dbl>
…
Example: Normalize country_data table by moving measurment variables including pop, gdp and gdpcap columns into longer format where there is a column to store the variable name and a column store their value. We can achieve this by pivot country_data to long format.

country_data |>
  pivot_longer(
    cols = c("pop", "gdp", "gdpcap"), 
    names_to  = "variable",
    values_to = "value"
  )
#> # A tibble: 14,880 × 4
#>     year iso3  variable     value
#>    <dbl> <chr> <chr>        <dbl>
#>  1  2000 ABW   pop           90.9
#>  2  2000 ABW   gdp      1873453. 
#>  3  2000 ABW   gdpcap        20.6
#>  4  2001 ABW   pop           92.9
#>  5  2001 ABW   gdp      1920263. 
#>  6  2001 ABW   gdpcap        20.7
#>  7  2002 ABW   pop           95.0
#>  8  2002 ABW   gdp      1941095. 
#>  9  2002 ABW   gdpcap        20.4
#> 10  2003 ABW   pop           97.0
#> # … with 14,870 more rows
…
df1 |>
  left_join(
    df2,
    by = c("df1_column" = "df2_column")
  )
# where df1_column and df2_column are key to join both table together

Example: Add country name to baci_2019

baci_2019 |>
  left_join(
    country_codes,
    by = c("i" = "iso3n")
  )
#> # A tibble: 895,929 × 10
#>        t     i     j k          v       q country_name iso2c iso3c region
#>    <dbl> <dbl> <dbl> <chr>  <dbl>   <dbl> <chr>        <chr> <chr> <chr> 
#>  1  2019     4    24 48     1.60    1     Afghanistan  AF    AFG   Asia  
#>  2  2019     4    24 84     1.11    0.021 Afghanistan  AF    AFG   Asia  
#>  3  2019     4    28 62     0.483   0.011 Afghanistan  AF    AFG   Asia  
#>  4  2019     4    31 07     6.07   22.0   Afghanistan  AF    AFG   Asia  
#>  5  2019     4    31 08     9.41   38.2   Afghanistan  AF    AFG   Asia  
#>  6  2019     4    31 09     2.66    0.003 Afghanistan  AF    AFG   Asia  
#>  7  2019     4    31 20     0.082   0.096 Afghanistan  AF    AFG   Asia  
#>  8  2019     4    31 22     0.559   1.06  Afghanistan  AF    AFG   Asia  
#>  9  2019     4    31 25    27.4   111.    Afghanistan  AF    AFG   Asia  
#> 10  2019     4    31 39     1.77    0.285 Afghanistan  AF    AFG   Asia  
#> # … with 895,919 more rows
…
#> 138          6.4         3.1          5.5         1.8  virginica
#> 139          6.0         3.0          4.8         1.8  virginica
#> 140          6.9         3.1          5.4         2.1  virginica
#> 141          6.7         3.1          5.6         2.4  virginica
#> 142          6.9         3.1          5.1         2.3  virginica
#> 143          5.8         2.7          5.1         1.9  virginica
#> 144          6.8         3.2          5.9         2.3  virginica
#> 145          6.7         3.3          5.7         2.5  virginica
#> 146          6.7         3.0          5.2         2.3  virginica
#> 147          6.3         2.5          5.0         1.9  virginica
#> 148          6.5         3.0          5.2         2.0  virginica
#> 149          6.2         3.4          5.4         2.3  virginica
#> 150          5.9         3.0          5.1         1.8  virginica
iris_tibble
#> # A tibble: 150 × 5
#>    Sepal.Length Sepal.Width Petal.Length Petal.Width Species
#>           <dbl>       <dbl>        <dbl>       <dbl> <fct>  
#>  1          5.1         3.5          1.4         0.2 setosa 
#>  2          4.9         3            1.4         0.2 setosa 
#>  3          4.7         3.2          1.3         0.2 setosa 
#>  4          4.6         3.1          1.5         0.2 setosa 
#>  5          5           3.6          1.4         0.2 setosa 
#>  6          5.4         3.9          1.7         0.4 setosa 
#>  7          4.6         3.4          1.4         0.3 setosa 
#>  8          5           3.4          1.5         0.2 setosa 
#>  9          4.4         2.9          1.4         0.2 setosa 
#> 10          4.9         3.1          1.5         0.1 setosa 
#> # … with 140 more rows
Useful commands

dplyr::count: count value by variables

tidyr::fill: fill na values

dplyr::bind_rows: combine data.frame

etc.

Example:

# count
baci_2019 |> count(k)
#> # A tibble: 96 × 2
#>    k         n
#>    <chr> <int>
#>  1 01     5481
#>  2 02     5596
#>  3 03     8492
#>  4 04     7922
#>  5 05     5037
#>  6 06     5889
#>  7 07     9132
#>  8 08    10330
#>  9 09    10937
#> 10 10     6924
#> # … with 86 more rows
…
