Trade Analysis
…
Import data

# bilateral trade data from 2011 to 2020 using HS92 at 2 digit level
baci_extra <- readRDS(here("data/baci_extra.rds"))
baci_extra
#> # A tibble: 8,707,706 × 14
#>        t     i i_iso3c i_name  i_reg…¹     j j_iso3c j_name j_reg…² k     k_name
#>    <dbl> <dbl> <chr>   <chr>   <chr>   <dbl> <chr>   <chr>  <chr>   <chr> <chr> 
#>  1  2011     4 AFG     Afghan… Asia       12 DZA     Alger… Africa  39    Plast…
#>  2  2011     4 AFG     Afghan… Asia       12 DZA     Alger… Africa  40    Rubber
#>  3  2011     4 AFG     Afghan… Asia       12 DZA     Alger… Africa  84    Indus…
#>  4  2011     4 AFG     Afghan… Asia       12 DZA     Alger… Africa  87    Vehic…
#>  5  2011     4 AFG     Afghan… Asia       24 AGO     Angola Africa  19    Prepa…
#>  6  2011     4 AFG     Afghan… Asia       24 AGO     Angola Africa  21    Misce…
#>  7  2011     4 AFG     Afghan… Asia       24 AGO     Angola Africa  32    Dyes,…
#>  8  2011     4 AFG     Afghan… Asia       24 AGO     Angola Africa  39    Plast…
#>  9  2011     4 AFG     Afghan… Asia       24 AGO     Angola Africa  40    Rubber
#> 10  2011     4 AFG     Afghan… Asia       24 AGO     Angola Africa  48    Paper…
#> # … with 8,707,696 more rows, 3 more variables: k_sector <chr>, v <dbl>,
#> #   q <dbl>, and abbreviated variable names ¹​i_region, ²​j_region

# trade data of exporter from 2011 to 2020 using HS92 at 2 digit level
baci_extra_i <- readRDS(here("data/baci_extra_i.rds"))
baci_extra_i
#> # A tibble: 193,930 × 13
#>        t     i i_iso3c i_name      i_region k     k_name k_sec…¹       v       q
#>    <dbl> <dbl> <chr>   <chr>       <chr>    <chr> <chr>  <chr>     <dbl>   <dbl>
#>  1  2011     4 AFG     Afghanistan Asia     01    Live … Agricu… 1.00e-1 5.5 e-2
#>  2  2011     4 AFG     Afghanistan Asia     02    Meat   Agricu… 1.49e-1 6.74e+1
#>  3  2011     4 AFG     Afghanistan Asia     03    Fish   Agricu… 1.11e-3 8.5 e-2
#>  4  2011     4 AFG     Afghanistan Asia     04    Diary… Agricu… 5.02e-1 2.85e+2
#>  5  2011     4 AFG     Afghanistan Asia     05    Anima… Agricu… 4.36e-1 2.01e+2
#>  6  2011     4 AFG     Afghanistan Asia     06    Plants Agricu… 1.1 e-5 1   e-3
#>  7  2011     4 AFG     Afghanistan Asia     07    Veget… Agricu… 2.67e+1 1.25e+5
#>  8  2011     4 AFG     Afghanistan Asia     08    Fruit… Agricu… 1.66e+2 1.13e+5
#>  9  2011     4 AFG     Afghanistan Asia     09    Coffe… Agricu… 7.87e+0 4.90e+3
#> 10  2011     4 AFG     Afghanistan Asia     10    Cerea… Agricu… 5.05e-2 1.58e+2
#> # … with 193,920 more rows, 3 more variables: pop <dbl>, gdp <dbl>,
#> #   gdpcap <dbl>, and abbreviated variable name ¹​k_sector

# data for gravity model
gravity_0019 <- readRDS(here("data/gravity_0019.rds"))
gravity_0019
#> # A tibble: 1,230,080 × 15
#>     year iso3_o iso3_d tradeflo…¹  gdp_o  gdp_d  dist distw contig   rta comla…²
#>    <int> <chr>  <chr>       <dbl>  <dbl>  <dbl> <dbl> <dbl>  <int> <int>   <int>
#>  1  2000 ABW    ABW            NA 1.87e6 1.87e6  5.22  25.1      0     0       0
#>  2  2001 ABW    ABW            NA 1.92e6 1.92e6  5.22  25.1      0     0       0
#>  3  2002 ABW    ABW            NA 1.94e6 1.94e6  5.22  25.1      0     0       0
#>  4  2003 ABW    ABW            NA 2.02e6 2.02e6  5.22  25.1      0     0       0
#>  5  2004 ABW    ABW            NA 2.23e6 2.23e6  5.22  25.1      0     0       0
#>  6  2005 ABW    ABW            NA 2.33e6 2.33e6  5.22  25.1      0     0       0
#>  7  2006 ABW    ABW            NA 2.42e6 2.42e6  5.22  25.1      0     0       0
#>  8  2007 ABW    ABW            NA 2.62e6 2.62e6  5.22  25.1      0     0       0
#>  9  2008 ABW    ABW            NA 2.79e6 2.79e6  5.22  25.1      0     0       0
#> 10  2009 ABW    ABW            NA 2.50e6 2.50e6  5.22  25.1      0     0       0
#> # … with 1,230,070 more rows, 4 more variables: pop_o <dbl>, pop_d <dbl>,
#> #   gdpcap_o <dbl>, gdpcap_d <dbl>, and abbreviated variable names
#> #   ¹​tradeflow_baci, ²​comlang_off

# additional data
country_codes <- baci_extra_i |> distinct(i, i_iso3c, i_name, i_region)
country_codes
#> # A tibble: 229 × 4
#>        i i_iso3c i_name              i_region     
#>    <dbl> <chr>   <chr>               <chr>        
#>  1     4 AFG     Afghanistan         Asia         
#>  2     8 ALB     Albania             Europe       
#>  3    12 DZA     Algeria             Africa       
#>  4    16 ASM     American Samoa      Other        
#>  5    20 AND     Andorra             Europe       
#>  6    24 AGO     Angola              Africa       
#>  7    28 ATG     Antigua and Barbuda North America
#>  8    31 AZE     Azerbaijan          Asia         
#>  9    32 ARG     Argentina           South America
#> 10    36 AUS     Australia           Oceania      
#> # … with 219 more rows

product_codes <- baci_extra_i |> distinct(k, k_name, k_sector)
product_codes
#> # A tibble: 96 × 3
#>    k     k_name                 k_sector   
#>    <chr> <chr>                  <chr>      
#>  1 01    Live animals           Agriculture
#>  2 02    Meat                   Agriculture
#>  3 03    Fish                   Agriculture
#>  4 04    Diary products         Agriculture
#>  5 05    Animal products        Agriculture
#>  6 06    Plants                 Agriculture
#>  7 07    Vegetables             Agriculture
#>  8 08    Fruits and nuts        Agriculture
#>  9 09    Coffee, tea and spices Agriculture
#> 10 10    Cereals                Agriculture
#> # … with 86 more rows
…
Example

Let’s apply to real dataset. Suppose we want to make a table of export data of Thailand from 2016-2020 classified by products where each year has its own column (pivot wider). In addition, we compute two additional metrics: the average and growth rate from 2016-2020. To do that, we split our calculation into five steps:

Filter baci_extra_i for country and year of interest.

# step1: filter data of interest
df <- baci_extra_i |>
  filter(t %in% 2016:2020, i_iso3c == "THA") |>
  arrange(t, i_iso3c, k)
df
#> # A tibble: 480 × 13
#>        t     i i_iso3c i_name  i_reg…¹ k     k_name k_sec…²      v      q    pop
#>    <dbl> <dbl> <chr>   <chr>   <chr>   <chr> <chr>  <chr>    <dbl>  <dbl>  <dbl>
#>  1  2016   764 THA     Thaila… Asia    01    Live … Agricu…  224.  1.21e5 68864.
#>  2  2016   764 THA     Thaila… Asia    02    Meat   Agricu…  748.  3.18e5 68864.
#>  3  2016   764 THA     Thaila… Asia    03    Fish   Agricu… 2041.  4.35e5 68864.
#>  4  2016   764 THA     Thaila… Asia    04    Diary… Agricu…  288.  2.14e5 68864.
#>  5  2016   764 THA     Thaila… Asia    05    Anima… Agricu…   47.2 1.38e4 68864.
#>  6  2016   764 THA     Thaila… Asia    06    Plants Agricu…  137.  9.08e4 68864.
#>  7  2016   764 THA     Thaila… Asia    07    Veget… Agricu… 1475.  1.46e6 68864.
#>  8  2016   764 THA     Thaila… Asia    08    Fruit… Agricu… 1790.  1.44e6 68864.
#>  9  2016   764 THA     Thaila… Asia    09    Coffe… Agricu…   78.9 6.17e4 68864.
#> 10  2016   764 THA     Thaila… Asia    10    Cerea… Agricu… 4747.  1.07e7 68864.
#> # … with 470 more rows, 2 more variables: gdp <dbl>, gdpcap <dbl>, and
#> #   abbreviated variable names ¹​i_region, ²​k_sector

Reshape the table using pivot_wider.

# step2: make a wider table where year represent years
df_wide <- df |>
  pivot_wider(
    c(k, k_name, k_sector),
    names_from = "t",
    values_from = "v"
  )
df_wide
#> # A tibble: 96 × 8
#>    k     k_name                 k_sector    `2016` `2017` `2018` `2019` `2020`
#>    <chr> <chr>                  <chr>        <dbl>  <dbl>  <dbl>  <dbl>  <dbl>
#>  1 01    Live animals           Agriculture  224.   216.   304.   311.   675. 
#>  2 02    Meat                   Agriculture  748.   827.  1093.  1091.  1190. 
#>  3 03    Fish                   Agriculture 2041.  1886.  1626.  1504.  1339. 
#>  4 04    Diary products         Agriculture  288.   314.   348.   356.   349. 
#>  5 05    Animal products        Agriculture   47.2   57.0   62.9   64.3   74.0
#>  6 06    Plants                 Agriculture  137.   137.   152.   148.   108. 
#>  7 07    Vegetables             Agriculture 1475.  1511.  1313.   932.  1034. 
#>  8 08    Fruits and nuts        Agriculture 1790.  2414.  2844.  4010.  4393. 
#>  9 09    Coffee, tea and spices Agriculture   78.9  150.   153.   149.   134. 
#> 10 10    Cereals                Agriculture 4747.  5516.  5991.  4501.  3961. 
#> # … with 86 more rows

Compute the average and growth rate using group_by and summarize together with mean and our growth_ols function.

# step3: compute summarize metrics
df_sum <- df |>
  group_by(k) |>
  summarize(
    avg_1620 = mean(v, na.rm = TRUE),
    growth_1620 = growth_ols(v) * 100
  ) |> ungroup()
df_sum
#> # A tibble: 96 × 3
#>    k     avg_1620 growth_1620
#>    <chr>    <dbl>       <dbl>
#>  1 01       346.        29.2 
#>  2 02       990.        12.8 
#>  3 03      1679.       -10.2 
#>  4 04       331.         5.20
#>  5 05        61.1       10.8 
#>  6 06       136.        -3.83
#>  7 07      1253.       -11.3 
#>  8 08      3090.        25.9 
#>  9 09       133.        11.1 
#> 10 10      4943.        -5.50
#> # … with 86 more rows

Combine result from step 2 and 3 using left_join.

# step4: join two tables
df_combine <- df_wide |>
  left_join(df_sum)
#> Joining, by = "k"
df_combine
#> # A tibble: 96 × 10
#>    k     k_name       k_sec…¹ `2016` `2017` `2018` `2019` `2020` avg_1…² growt…³
#>    <chr> <chr>        <chr>    <dbl>  <dbl>  <dbl>  <dbl>  <dbl>   <dbl>   <dbl>
#>  1 01    Live animals Agricu…  224.   216.   304.   311.   675.    346.    29.2 
#>  2 02    Meat         Agricu…  748.   827.  1093.  1091.  1190.    990.    12.8 
#>  3 03    Fish         Agricu… 2041.  1886.  1626.  1504.  1339.   1679.   -10.2 
#>  4 04    Diary produ… Agricu…  288.   314.   348.   356.   349.    331.     5.20
#>  5 05    Animal prod… Agricu…   47.2   57.0   62.9   64.3   74.0    61.1   10.8 
#>  6 06    Plants       Agricu…  137.   137.   152.   148.   108.    136.    -3.83
#>  7 07    Vegetables   Agricu… 1475.  1511.  1313.   932.  1034.   1253.   -11.3 
#>  8 08    Fruits and … Agricu… 1790.  2414.  2844.  4010.  4393.   3090.    25.9 
#>  9 09    Coffee, tea… Agricu…   78.9  150.   153.   149.   134.    133.    11.1 
#> 10 10    Cereals      Agricu… 4747.  5516.  5991.  4501.  3961.   4943.    -5.50
#> # … with 86 more rows, and abbreviated variable names ¹​k_sector, ²​avg_1620,
#> #   ³​growth_1620
…
Example

Let’s apply to real dataset. Suppose we want to make a table of RCA of Thai export from 2016-2020 classified by products. To do that, we split our calculation into five steps:

Filter baci_extra_i by years of interest and then compute average export values of each exporter and products.

# step1: prepare data using average of 2016-2020
baci_1620 <- baci_extra_i |>
  filter(t %in% 2016:2020) |>
  group_by(country = i_iso3c, product = k) |>
  summarize(value = mean(v, na.rm = TRUE)) |> ungroup()
#> `summarise()` has grouped output by 'country'. You can override using the
#> `.groups` argument.
baci_1620
#> # A tibble: 20,817 × 3
#>    country product   value
#>    <chr>   <chr>     <dbl>
#>  1 ABW     01      0.0504 
#>  2 ABW     02      0.285  
#>  3 ABW     03      0.813  
#>  4 ABW     04      0.240  
#>  5 ABW     05      0.0395 
#>  6 ABW     06      0.00962
#>  7 ABW     07      0.0633 
#>  8 ABW     08      0.00758
#>  9 ABW     09      0.0303 
#> 10 ABW     10      0.179  
#> # … with 20,807 more rows
…
Extract information of interest and add additional information.

# step3: extract information only agriculture hscode 1-24 of Thailand.
rca_tha <- bi_dec["THA", 1:24] |>
  as.data.frame() |>
  rownames_to_column() |>
  as_tibble() |>
  select(k = 1, RCA = 2)|>
  left_join(product_codes, by = c("k" = "k")) |>
  select(k, k_name, k_sector, RCA)
rca_tha
#> # A tibble: 24 × 4
#>    k     k_name                 k_sector      RCA
#>    <chr> <chr>                  <chr>       <dbl>
#>  1 01    Live animals           Agriculture 1.07 
#>  2 02    Meat                   Agriculture 0.543
#>  3 03    Fish                   Agriculture 1.01 
#>  4 04    Diary products         Agriculture 0.267
#>  5 05    Animal products        Agriculture 0.401
#>  6 06    Plants                 Agriculture 0.458
#>  7 07    Vegetables             Agriculture 1.20 
#>  8 08    Fruits and nuts        Agriculture 1.72 
#>  9 09    Coffee, tea and spices Agriculture 0.184
#> 10 10    Cereals                Agriculture 2.93 
#> # … with 14 more rows
…
Example

Suppose we want to compute complexity measure using data from 2016 to 2020. We break down into 4 steps

Prepare data by filtering baci_extra_i by years of interest and then compute average export values of each exporter and products.

# step1: prepare data using average of 2016-2020
baci_1620 <- baci_extra_i |>
  filter(t %in% 2016:2020) |>
  group_by(country = i_iso3c, product = k) |>
  summarize(value = mean(v, na.rm = TRUE)) |> ungroup()
#> `summarise()` has grouped output by 'country'. You can override using the
#> `.groups` argument.
baci_1620
#> # A tibble: 20,817 × 3
#>    country product   value
#>    <chr>   <chr>     <dbl>
#>  1 ABW     01      0.0504 
#>  2 ABW     02      0.285  
#>  3 ABW     03      0.813  
#>  4 ABW     04      0.240  
#>  5 ABW     05      0.0395 
#>  6 ABW     06      0.00962
#>  7 ABW     07      0.0633 
#>  8 ABW     08      0.00758
#>  9 ABW     09      0.0303 
#> 10 ABW     10      0.179  
#> # … with 20,807 more rows
…
Compute complexity measures using eigenvalue method. Note that there are three methods (fitness, reflections or eigenvalues). Then, we convert to tibble and supplement information about country name.

# step3: compute complexity measures
com_eig <- complexity_measures(bi, method = "eigenvalues")
com_eig_country <- com_eig$complexity_index_country |>
  as_tibble(rownames = NA) |>
  rownames_to_column(var = "i_iso3c") |>
  arrange(-value) |>
  left_join(country_codes, by = c("i_iso3c" = "i_iso3c")) |>
  select(i_iso3c, i_name, i_region, value)
com_eig_country
#> # A tibble: 228 × 4
#>    i_iso3c i_name                i_region      value
#>    <chr>   <chr>                 <chr>         <dbl>
#>  1 TWN     Other Asia, nes       Asia           2.48
#>  2 JPN     Japan                 Asia           2.27
#>  3 KOR     Rep. of Korea         Asia           2.24
#>  4 CZE     Czechia               Europe         2.04
#>  5 DEU     Germany               Europe         1.97
#>  6 CCK     Cocos Isds            Oceania        1.76
#>  7 SVN     Slovenia              Europe         1.63
#>  8 SVK     Slovakia              Europe         1.50
#>  9 AUT     Austria               Europe         1.48
#> 10 KNA     Saint Kitts and Nevis North America  1.48
#> # … with 218 more rows
…
# step 1: prep data
# gravity_0019 <- readRDS(here("data/gravity_0019.rds"))
gravity_18 <- gravity_0019 |>
  filter(year == 2018)
nrow(gravity_18)
#> [1] 61504

gravity_18_nozeros <- gravity_18 |>
  drop_na() |>
  filter(tradeflow_baci != 0)
nrow(gravity_18_nozeros)
#> [1] 23783

gravity_18_nozeros
#> # A tibble: 23,783 × 15
#>     year iso3_o iso3_d tradef…¹  gdp_o  gdp_d   dist  distw contig   rta comla…²
#>    <int> <chr>  <chr>     <dbl>  <dbl>  <dbl>  <dbl>  <dbl>  <int> <int>   <int>
#>  1  2018 AFG    AGO     1.04e+2 1.84e7 1.01e8  7608.  7573.      0     0       0
#>  2  2018 AFG    ARE     1.26e+5 1.84e7 4.22e8  1814.  1657.      0     0       0
#>  3  2018 AFG    ARG     1.24e+1 1.84e7 5.18e8 15299. 15341.      0     0       0
#>  4  2018 AFG    ARM     4.79e+0 1.84e7 1.25e7  2266.  2171.      0     0       0
#>  5  2018 AFG    AUS     5.53e+2 1.84e7 1.43e9 11433. 11086.      0     0       0
#>  6  2018 AFG    AUT     5.70e+2 1.84e7 4.55e8  4568.  4567.      0     0       0
#>  7  2018 AFG    AZE     6.93e+0 1.84e7 4.71e7  1822.  1822.      0     0       0
#>  8  2018 AFG    BDI     7.9 e-2 1.84e7 3.04e6  5930.  5849.      0     0       0
#>  9  2018 AFG    BEL     2.69e+2 1.84e7 5.44e8  5416.  5332.      0     0       0
#> 10  2018 AFG    BEN     1.60e+0 1.84e7 1.43e7  7481.  7331.      0     0       0
#> # … with 23,773 more rows, 4 more variables: pop_o <dbl>, pop_d <dbl>,
#> #   gdpcap_o <dbl>, gdpcap_d <dbl>, and abbreviated variable names
#> #   ¹​tradeflow_baci, ²​comlang_off
…
