Excercise 2: Data Wrangling
…
Import Load from your machine, if you open with the R project and have the file in folder data.

path_baci <- here::here("data/baci_hs92_2019_2digit.rds")
path_metadata <- here::here("data/baci_meta.xlsx")

baci_2019 <- readRDS(path_baci)
country_codes <- read.xlsx(path_metadata, 1) |> as_tibble()
product_codes <- read.xlsx(path_metadata, 2) |> as_tibble()

Preview data

baci_2019

# A tibble: 895,929 × 6
       t     i     j k          v       q
   <dbl> <dbl> <dbl> <chr>  <dbl>   <dbl>
 1  2019     4    24 48     1.60    1    
 2  2019     4    24 84     1.11    0.021
 3  2019     4    28 62     0.483   0.011
 4  2019     4    31 07     6.07   22.0  
 5  2019     4    31 08     9.41   38.2  
 6  2019     4    31 09     2.66    0.003
 7  2019     4    31 20     0.082   0.096
 8  2019     4    31 22     0.559   1.06 
 9  2019     4    31 25    27.4   111.   
10  2019     4    31 39     1.77    0.285
# … with 895,919 more rows

country_codes

# A tibble: 238 × 5
   iso3n country_name        iso2c iso3c region       
   <dbl> <chr>               <chr> <chr> <chr>        
 1     4 Afghanistan         AF    AFG   Asia         
 2     8 Albania             AL    ALB   Europe       
 3    12 Algeria             DZ    DZA   Africa       
 4    16 American Samoa      AS    ASM   Other        
 5    20 Andorra             AD    AND   Europe       
 6    24 Angola              AO    AGO   Africa       
 7    28 Antigua and Barbuda AG    ATG   North America
 8    31 Azerbaijan          AZ    AZE   Asia         
 9    32 Argentina           AR    ARG   South America
10    36 Australia           AU    AUS   Oceania      
# … with 228 more rows

product_codes

# A tibble: 102 × 4
   product_id hs_product_2digit_code hs_product_2digit_name sector     
        <dbl> <chr>                  <chr>                  <chr>      
 1        100 01                     Live animals           Agriculture
 2        101 02                     Meat                   Agriculture
 3        102 03                     Fish                   Agriculture
 4        103 04                     Diary products         Agriculture
 5        104 05                     Animal products        Agriculture
 6        105 06                     Plants                 Agriculture
 7        106 07                     Vegetables             Agriculture
 8        107 08                     Fruits and nuts        Agriculture
 9        108 09                     Coffee, tea and spices Agriculture
10        109 10                     Cereals                Agriculture
# … with 92 more rows
…
daily_2019 <- baci_2019 |> filter(k == "04")
daily_2019

# A tibble: 7,922 × 6
       t     i     j k          v     q
   <dbl> <dbl> <dbl> <chr>  <dbl> <dbl>
 1  2019     4    36 04     1.44  0.484
 2  2019     4    48 04     0.048 0.04 
 3  2019     4   124 04    22.3   7.88 
 4  2019     4   276 04     0.693 0.314
 5  2019     4   462 04     1.58  0.372
 6  2019     4   508 04    25.5   2.03 
 7  2019     4   586 04     8.62  1.84 
 8  2019     4   682 04     1.64  0.496
 9  2019     4   784 04     2.28  0.402
10  2019     4   792 04     0.143 0.029
# … with 7,912 more rows

Question 3

Use daily_2019 to compute a unit price and convert the unit to US dollar per ton. Fill ... in the code snippet.

Code
Solution

daily_2019 |> mutate(unit_price = ...)

daily_2019 |> mutate(unit_price = v*1000/q)

# A tibble: 7,922 × 7
       t     i     j k          v     q unit_price
   <dbl> <dbl> <dbl> <chr>  <dbl> <dbl>      <dbl>
 1  2019     4    36 04     1.44  0.484      2975.
 2  2019     4    48 04     0.048 0.04       1200 
 3  2019     4   124 04    22.3   7.88       2833.
 4  2019     4   276 04     0.693 0.314      2207.
 5  2019     4   462 04     1.58  0.372      4237.
 6  2019     4   508 04    25.5   2.03      12566.
 7  2019     4   586 04     8.62  1.84       4671.
 8  2019     4   682 04     1.64  0.496      3312.
 9  2019     4   784 04     2.28  0.402      5674.
10  2019     4   792 04     0.143 0.029      4931.
# … with 7,912 more rows
…
Use daily_2019 to get import values by destination countries (importers). Fill ... in the code snippet.

Code
Solution

daily_2019 |>
  group_by(...) |>
  summarize(v = ...)

daily_2019 |>
  group_by(j) |>
  summarize(v = sum(v))

# A tibble: 224 × 2
       j        v
   <dbl>    <dbl>
 1     4   95829.
 2     8   31499.
 3    12 1104314.
 4    16    2645.
 5    20   27703.
 6    24  201516.
 7    28   10425.
 8    31  100788.
 9    32   24393.
10    36 1036407.
# … with 214 more rows
…
daily_2019 |>
  pivot_wider(
    id_cols = ...,
    names_from = ...,
    values_from = ...
  )

daily_2019 |>
  pivot_wider(
    id_cols = "i",
    names_from = "j",
    values_from = "v"
  )

# A tibble: 202 × 225
       i   `36`     `48`    `124`     `276`    `462` `508`  `586`    `682`
   <dbl>  <dbl>    <dbl>    <dbl>     <dbl>    <dbl> <dbl>  <dbl>    <dbl>
 1     4   1.44    0.048   22.3       0.693    1.58   25.5   8.62     1.64
 2     8  NA      NA       NA        NA       NA      NA    NA       NA   
 3    12  NA      NA        0.444    NA       NA      NA    NA       NA   
 4    16  NA      NA       NA        NA       NA      NA    NA       NA   
 5    20  NA      NA       NA        NA       NA      NA    NA       NA   
 6    24  NA      NA        1.08     NA       NA      NA    NA       NA   
 7    28  NA      NA       NA        NA       NA      NA    NA       NA   
 8    31  NA      NA       NA        NA       NA      NA    NA       NA   
 9    32 463.    549.     309.    22059.       0.196  NA    NA    12867.  
10    36  NA    6955.    9627.      809.    5298.     NA   351.   12617.  
# … with 192 more rows, and 216 more variables: `784` <dbl>, `792` <dbl>,
#   `826` <dbl>, `842` <dbl>, `191` <dbl>, `251` <dbl>, `300` <dbl>,
#   `348` <dbl>, `446` <dbl>, `686` <dbl>, `702` <dbl>, `56` <dbl>,
#   `208` <dbl>, `384` <dbl>, `410` <dbl>, `466` <dbl>, `478` <dbl>,
#   `528` <dbl>, `562` <dbl>, `634` <dbl>, `788` <dbl>, `288` <dbl>,
#   `703` <dbl>, `882` <dbl>, `690` <dbl>, `724` <dbl>, `748` <dbl>,
#   `757` <dbl>, `132` <dbl>, `156` <dbl>, `178` <dbl>, `180` <dbl>, …
…
  ) |>
  left_join(country_codes, by = c("j" = "iso3n")) |>
  rename(
    j_country_name = country_name,
    j_iso2c = iso2c,
    j_iso3c = iso3c,
    j_region = region
  ) |>
  pivot_wider(
    id_cols = "i_country_name",
    names_from = "j_country_name",
    values_from = "v"
  )

# A tibble: 202 × 225
   i_count…¹ Austr…²  Bahrain   Canada  Germany Maldives Mozam…³ Pakis…⁴ Saudi…⁵
   <chr>       <dbl>    <dbl>    <dbl>    <dbl>    <dbl>   <dbl>   <dbl>   <dbl>
 1 Afghanis…    1.44    0.048   22.3    6.93e-1    1.58     25.5    8.62  1.64e0
 2 Albania     NA      NA       NA     NA         NA        NA     NA    NA     
 3 Algeria     NA      NA        0.444 NA         NA        NA     NA    NA     
 4 American…   NA      NA       NA     NA         NA        NA     NA    NA     
 5 Andorra     NA      NA       NA     NA         NA        NA     NA    NA     
 6 Angola      NA      NA        1.08  NA         NA        NA     NA    NA     
 7 Antigua …   NA      NA       NA     NA         NA        NA     NA    NA     
 8 Azerbaij…   NA      NA       NA     NA         NA        NA     NA    NA     
 9 Argentina  463.    549.     309.     2.21e+4    0.196    NA     NA     1.29e4
10 Australia   NA    6955.    9627.     8.09e+2 5298.       NA    351.    1.26e4
# … with 192 more rows, 216 more variables: `United Arab Emirates` <dbl>,
#   Turkey <dbl>, `United Kingdom` <dbl>, USA <dbl>, Croatia <dbl>,
#   France <dbl>, Greece <dbl>, Hungary <dbl>, `China, Macao SAR` <dbl>,
#   Senegal <dbl>, Singapore <dbl>, Belgium <dbl>, Denmark <dbl>,
#   `C๔te d'Ivoire` <dbl>, `Rep. of Korea` <dbl>, Mali <dbl>, Mauritania <dbl>,
#   Netherlands <dbl>, Niger <dbl>, Qatar <dbl>, Tunisia <dbl>, Ghana <dbl>,
#   Slovakia <dbl>, Samoa <dbl>, Seychelles <dbl>, Spain <dbl>, …
