Excercise 3: Data Visualization
…
Option 1: Import from internet.

url_baci_i <- "https://github.com/piyayut-ch/Workshop_URTA_2022/raw/main/data/baci_extra_i.rds"
baci_extra_i <- readRDS(gzcon(url(url_baci_i)))
# gzcon and url function are used to download data from github

Option 2: Import from your machine, if you open with the R project and have the file in folder data.

path_baci <- here::here("data/baci_extra_i.rds")
baci_extra_i <- readRDS(path_baci)

baci_extra_i

# A tibble: 193,930 × 13
       t     i i_iso3c i_name      i_region k     k_name k_sec…¹       v       q
   <dbl> <dbl> <chr>   <chr>       <chr>    <chr> <chr>  <chr>     <dbl>   <dbl>
 1  2011     4 AFG     Afghanistan Asia     01    Live … Agricu… 1.00e-1 5.5 e-2
 2  2011     4 AFG     Afghanistan Asia     02    Meat   Agricu… 1.49e-1 6.74e+1
 3  2011     4 AFG     Afghanistan Asia     03    Fish   Agricu… 1.11e-3 8.5 e-2
 4  2011     4 AFG     Afghanistan Asia     04    Diary… Agricu… 5.02e-1 2.85e+2
 5  2011     4 AFG     Afghanistan Asia     05    Anima… Agricu… 4.36e-1 2.01e+2
 6  2011     4 AFG     Afghanistan Asia     06    Plants Agricu… 1.1 e-5 1   e-3
 7  2011     4 AFG     Afghanistan Asia     07    Veget… Agricu… 2.67e+1 1.25e+5
 8  2011     4 AFG     Afghanistan Asia     08    Fruit… Agricu… 1.66e+2 1.13e+5
 9  2011     4 AFG     Afghanistan Asia     09    Coffe… Agricu… 7.87e+0 4.90e+3
10  2011     4 AFG     Afghanistan Asia     10    Cerea… Agricu… 5.05e-2 1.58e+2
# … with 193,920 more rows, 3 more variables: pop <dbl>, gdp <dbl>,
#   gdpcap <dbl>, and abbreviated variable name ¹​k_sector
…
